Tzu-Chun’s R coding Exercise
…
We can see that there were some streaks following a positive and linear trend between population and life expectancy. This could result from the source that mixed data from different countries across multiple years, so my next step is to try to avoid this noise and only look into the data from a particular year.

More data processing and plotting

I grouped the data by year and summarized how many missing data in infant mortality across each year, then I filtered out only those years with missing data.

#write code that figures out which years have missing data for infant mortality
africadata %>% 
      group_by(year) %>% 
      summarise(infant_mortality_na = sum(is.na(infant_mortality))) %>% 
      filter(infant_mortality_na > 0) #missing up to 1981 and 2016

## # A tibble: 23 x 2
##     year infant_mortality_na
##    <int>               <int>
##  1  1960                  10
##  2  1961                  17
##  3  1962                  16
##  4  1963                  16
##  5  1964                  15
##  6  1965                  14
##  7  1966                  13
##  8  1967                  11
##  9  1968                  11
## 10  1969                   7
## # ... with 13 more rows
…
