Tzu-Chun’s Tidy Tuesday Exercise 2
…
## # A tibble: 1 x 5
##   term        estimate std.error statistic p.value
##   <chr>          <dbl>     <dbl>     <dbl>   <dbl>
## 1 (Intercept)     98.9    0.0537     1842.       0

### Null model Evaluation
# we will use the RMSE as a metric to assess model performance

# Use a trained workflow to predict section using test data 
predict(null_fit, test_data)

## # A tibble: 222 x 1
##    .pred
##    <dbl>
##  1  98.9
##  2  98.9
##  3  98.9
##  4  98.9
##  5  98.9
##  6  98.9
##  7  98.9
##  8  98.9
##  9  98.9
## 10  98.9
## # ... with 212 more rows

# include predicted probabilities
null_test_aug <- augment(null_fit, test_data)

# estimate RMSE for test data
rmse_null_test <- null_test_aug %>% 
  rmse(truth = BodyTemp, .pred)

# evaluate prediction in train data
predict(null_fit, train_data)

## # A tibble: 508 x 1
##    .pred
##    <dbl>
##  1  98.9
##  2  98.9
##  3  98.9
##  4  98.9
##  5  98.9
##  6  98.9
##  7  98.9
##  8  98.9
##  9  98.9
## 10  98.9
## # ... with 498 more rows
…
    1.157100
training

    1.152456
testing

tidy(extract_model(best_lasso_train_fit)) %>%
  filter(lambda > 0.01 & lambda < 0.03)

## Warning: `extract_model()` was deprecated in tune 0.1.6.
## Please use `extract_fit_engine()` instead.

## # A tibble: 298 x 5
##    term         step estimate lambda dev.ratio
##    <chr>       <dbl>    <dbl>  <dbl>     <dbl>
##  1 (Intercept)    25     98.4 0.0292     0.154
##  2 (Intercept)    26     98.4 0.0266     0.157
##  3 (Intercept)    27     98.3 0.0242     0.158
##  4 (Intercept)    28     98.3 0.0221     0.160
##  5 (Intercept)    29     98.3 0.0201     0.161
##  6 (Intercept)    30     98.3 0.0183     0.163
##  7 (Intercept)    31     98.3 0.0167     0.164
##  8 (Intercept)    32     98.2 0.0152     0.165
##  9 (Intercept)    33     98.2 0.0139     0.165
## 10 (Intercept)    34     98.2 0.0126     0.166
## # ... with 288 more rows
…
